EESchema Schematic File Version 4
EELAYER 30 0
EELAYER END
$Descr A4 11693 8268
encoding utf-8
Sheet 1 1
Title ""
Date ""
Rev ""
Comp ""
Comment1 ""
Comment2 ""
Comment3 ""
Comment4 ""
$EndDescr
$Comp
L ESP:ESP-32 U2
U 1 1 617409AF
P 6700 3250
F 0 "U2" H 6650 4165 50  0000 C CNN
F 1 "ESP-32" H 6650 4074 50  0000 C CNN
F 2 "ESP_32_Footprint:ESP_32" H 7050 4050 50  0001 C CNN
F 3 "" H 7050 4050 50  0001 C CNN
	1    6700 3250
	1    0    0    -1  
$EndComp
$Comp
L Tank-rescue:MT3608-STEP-UP-Step-UP U1
U 1 1 617435B3
P 4650 5000
F 0 "U1" H 5100 5225 50  0000 C CNN
F 1 "MT3608-STEP-UP" H 5100 5134 50  0000 C CNN
F 2 "ESP_32_Footprint:STEP-UP-mt3608" H 5100 5100 50  0001 C CNN
F 3 "" H 5100 5100 50  0001 C CNN
	1    4650 5000
	1    0    0    -1  
$EndComp
$Comp
L Connector:Screw_Terminal_01x02 J1
U 1 1 61745E98
P 4250 5100
F 0 "J1" H 4168 4775 50  0000 C CNN
F 1 "Terminal_Alimentacion" H 4168 4866 50  0000 C CNN
F 2 "TerminalBlock:TerminalBlock_bornier-2_P5.08mm" H 4250 5100 50  0001 C CNN
F 3 "~" H 4250 5100 50  0001 C CNN
	1    4250 5100
	-1   0    0    1   
$EndComp
Wire Wire Line
	4450 5000 4650 5000
Wire Wire Line
	4450 5100 4600 5100
Wire Wire Line
	4600 5100 4600 5250
Wire Wire Line
	4600 5250 4650 5250
$Comp
L Connector_Generic:Conn_01x15 J5
U 1 1 618C0E6A
P 6750 1450
F 0 "J5" V 6875 1446 50  0000 C CNN
F 1 "Conn_01x15" H 6668 616 50  0001 C CNN
F 2 "Connector_PinHeader_2.54mm:PinHeader_1x15_P2.54mm_Vertical" H 6750 1450 50  0001 C CNN
F 3 "~" H 6750 1450 50  0001 C CNN
	1    6750 1450
	0    -1   -1   0   
$EndComp
$Comp
L Connector_Generic:Conn_01x15 J3
U 1 1 618C2EAB
P 5100 1450
F 0 "J3" V 5225 1446 50  0000 C CNN
F 1 "Conn_01x15" H 5018 616 50  0001 C CNN
F 2 "Connector_PinHeader_2.54mm:PinHeader_1x15_P2.54mm_Vertical" H 5100 1450 50  0001 C CNN
F 3 "~" H 5100 1450 50  0001 C CNN
	1    5100 1450
	0    -1   -1   0   
$EndComp
$Comp
L Connector_Generic:Conn_01x15 J2
U 1 1 618C3AA5
P 3450 1450
F 0 "J2" V 3575 1446 50  0000 C CNN
F 1 "Conn_01x15" H 3368 616 50  0001 C CNN
F 2 "Connector_PinHeader_2.54mm:PinHeader_1x15_P2.54mm_Vertical" H 3450 1450 50  0001 C CNN
F 3 "~" H 3450 1450 50  0001 C CNN
	1    3450 1450
	0    -1   -1   0   
$EndComp
$Comp
L Connector_Generic:Conn_01x15 J8
U 1 1 618C423F
P 8450 1450
F 0 "J8" V 8575 1446 50  0000 C CNN
F 1 "Conn_01x15" H 8368 616 50  0001 C CNN
F 2 "Connector_PinHeader_2.54mm:PinHeader_1x15_P2.54mm_Vertical" H 8450 1450 50  0001 C CNN
F 3 "~" H 8450 1450 50  0001 C CNN
	1    8450 1450
	0    -1   -1   0   
$EndComp
Wire Wire Line
	2750 1650 2850 1650
Wire Wire Line
	2850 1650 2950 1650
Connection ~ 2850 1650
Wire Wire Line
	2950 1650 3050 1650
Connection ~ 2950 1650
Wire Wire Line
	3050 1650 3150 1650
Connection ~ 3050 1650
Wire Wire Line
	3150 1650 3250 1650
Connection ~ 3150 1650
Wire Wire Line
	3250 1650 3350 1650
Connection ~ 3250 1650
Connection ~ 3350 1650
Connection ~ 3450 1650
Wire Wire Line
	3450 1650 3550 1650
Connection ~ 3550 1650
Wire Wire Line
	3550 1650 3650 1650
Connection ~ 3650 1650
Wire Wire Line
	3650 1650 3750 1650
Connection ~ 3750 1650
Wire Wire Line
	3750 1650 3850 1650
Connection ~ 3850 1650
Wire Wire Line
	3850 1650 3950 1650
Connection ~ 3950 1650
Wire Wire Line
	3950 1650 4050 1650
Connection ~ 4050 1650
Wire Wire Line
	4050 1650 4150 1650
Wire Wire Line
	4400 1650 4500 1650
Connection ~ 4500 1650
Wire Wire Line
	4500 1650 4600 1650
Connection ~ 4600 1650
Wire Wire Line
	4600 1650 4700 1650
Connection ~ 4700 1650
Wire Wire Line
	4700 1650 4800 1650
Connection ~ 4800 1650
Wire Wire Line
	4800 1650 4900 1650
Connection ~ 4900 1650
Wire Wire Line
	4900 1650 5000 1650
Connection ~ 5000 1650
Connection ~ 5100 1650
Wire Wire Line
	5100 1650 5200 1650
Connection ~ 5200 1650
Wire Wire Line
	5200 1650 5300 1650
Connection ~ 5300 1650
Wire Wire Line
	5300 1650 5400 1650
Connection ~ 5400 1650
Wire Wire Line
	5400 1650 5500 1650
Connection ~ 5500 1650
Wire Wire Line
	5500 1650 5600 1650
Connection ~ 5600 1650
Wire Wire Line
	5600 1650 5700 1650
Connection ~ 5700 1650
Wire Wire Line
	5700 1650 5800 1650
Wire Wire Line
	6050 1650 6150 1650
Connection ~ 6150 1650
Wire Wire Line
	6150 1650 6250 1650
Connection ~ 6250 1650
Wire Wire Line
	6250 1650 6350 1650
Connection ~ 6350 1650
Wire Wire Line
	6350 1650 6450 1650
Connection ~ 6450 1650
Wire Wire Line
	6450 1650 6550 1650
Connection ~ 6550 1650
Wire Wire Line
	6550 1650 6650 1650
Connection ~ 6650 1650
Wire Wire Line
	6650 1650 6700 1650
Connection ~ 6750 1650
Wire Wire Line
	6750 1650 6850 1650
Connection ~ 6850 1650
Wire Wire Line
	6850 1650 6950 1650
Connection ~ 6950 1650
Wire Wire Line
	6950 1650 7050 1650
Connection ~ 7050 1650
Wire Wire Line
	7050 1650 7150 1650
Connection ~ 7150 1650
Wire Wire Line
	7150 1650 7250 1650
Connection ~ 7250 1650
Wire Wire Line
	7250 1650 7350 1650
Connection ~ 7350 1650
Wire Wire Line
	7350 1650 7450 1650
Wire Wire Line
	7750 1650 7850 1650
Connection ~ 7850 1650
Wire Wire Line
	7850 1650 7950 1650
Connection ~ 7950 1650
Wire Wire Line
	7950 1650 8050 1650
Connection ~ 8050 1650
Wire Wire Line
	8050 1650 8150 1650
Connection ~ 8150 1650
Wire Wire Line
	8150 1650 8250 1650
Connection ~ 8250 1650
Wire Wire Line
	8250 1650 8350 1650
Connection ~ 8350 1650
Wire Wire Line
	8350 1650 8400 1650
Connection ~ 8450 1650
Wire Wire Line
	8450 1650 8550 1650
Connection ~ 8550 1650
Wire Wire Line
	8550 1650 8650 1650
Connection ~ 8650 1650
Wire Wire Line
	8650 1650 8750 1650
Connection ~ 8750 1650
Wire Wire Line
	8750 1650 8850 1650
Connection ~ 8850 1650
Wire Wire Line
	8850 1650 8950 1650
Connection ~ 8950 1650
Wire Wire Line
	8950 1650 9050 1650
Connection ~ 9050 1650
Wire Wire Line
	9050 1650 9150 1650
$Comp
L power:GND #PWR0101
U 1 1 618CCE9F
P 8400 1650
F 0 "#PWR0101" H 8400 1400 50  0001 C CNN
F 1 "GND" H 8405 1477 50  0000 C CNN
F 2 "" H 8400 1650 50  0001 C CNN
F 3 "" H 8400 1650 50  0001 C CNN
	1    8400 1650
	1    0    0    -1  
$EndComp
Connection ~ 8400 1650
Wire Wire Line
	8400 1650 8450 1650
$Comp
L power:GND #PWR0102
U 1 1 618CD392
P 6700 1650
F 0 "#PWR0102" H 6700 1400 50  0001 C CNN
F 1 "GND" H 6705 1477 50  0000 C CNN
F 2 "" H 6700 1650 50  0001 C CNN
F 3 "" H 6700 1650 50  0001 C CNN
	1    6700 1650
	1    0    0    -1  
$EndComp
Connection ~ 6700 1650
Wire Wire Line
	6700 1650 6750 1650
$Comp
L power:GND #PWR0103
U 1 1 618CED0C
P 5900 3900
F 0 "#PWR0103" H 5900 3650 50  0001 C CNN
F 1 "GND" H 5905 3727 50  0000 C CNN
F 2 "" H 5900 3900 50  0001 C CNN
F 3 "" H 5900 3900 50  0001 C CNN
	1    5900 3900
	0    1    1    0   
$EndComp
Wire Wire Line
	6150 3900 6100 3900
$Comp
L power:GND #PWR0105
U 1 1 618D3807
P 5550 5250
F 0 "#PWR0105" H 5550 5000 50  0001 C CNN
F 1 "GND" H 5555 5077 50  0000 C CNN
F 2 "" H 5550 5250 50  0001 C CNN
F 3 "" H 5550 5250 50  0001 C CNN
	1    5550 5250
	1    0    0    -1  
$EndComp
$Comp
L Regulator_Linear:LM7805_TO220 U4
U 1 1 618D717E
P 8350 5000
F 0 "U4" H 8350 5242 50  0000 C CNN
F 1 "LM7805_TO220" H 8350 5151 50  0000 C CNN
F 2 "Package_TO_SOT_THT:TO-220-3_Vertical" H 8350 5225 50  0001 C CIN
F 3 "https://www.onsemi.cn/PowerSolutions/document/MC7800-D.PDF" H 8350 4950 50  0001 C CNN
	1    8350 5000
	1    0    0    -1  
$EndComp
$Comp
L power:GND #PWR0106
U 1 1 618E1173
P 8350 5300
F 0 "#PWR0106" H 8350 5050 50  0001 C CNN
F 1 "GND" H 8355 5127 50  0000 C CNN
F 2 "" H 8350 5300 50  0001 C CNN
F 3 "" H 8350 5300 50  0001 C CNN
	1    8350 5300
	1    0    0    -1  
$EndComp
$Comp
L Device:CP1 C2
U 1 1 618E1673
P 7850 5150
F 0 "C2" H 7965 5196 50  0000 L CNN
F 1 "CP1" H 7965 5105 50  0000 L CNN
F 2 "Capacitor_THT:CP_Radial_D5.0mm_P2.00mm" H 7850 5150 50  0001 C CNN
F 3 "~" H 7850 5150 50  0001 C CNN
	1    7850 5150
	1    0    0    -1  
$EndComp
$Comp
L Device:C C1
U 1 1 618E24EE
P 7550 5150
F 0 "C1" H 7665 5196 50  0000 L CNN
F 1 "C" H 7665 5105 50  0000 L CNN
F 2 "Capacitor_THT:CP_Radial_D4.0mm_P2.00mm" H 7588 5000 50  0001 C CNN
F 3 "~" H 7550 5150 50  0001 C CNN
	1    7550 5150
	1    0    0    -1  
$EndComp
$Comp
L power:GND #PWR0107
U 1 1 618E2ADA
P 7850 5300
F 0 "#PWR0107" H 7850 5050 50  0001 C CNN
F 1 "GND" H 7855 5127 50  0000 C CNN
F 2 "" H 7850 5300 50  0001 C CNN
F 3 "" H 7850 5300 50  0001 C CNN
	1    7850 5300
	1    0    0    -1  
$EndComp
$Comp
L power:GND #PWR0108
U 1 1 618E2F2D
P 7550 5300
F 0 "#PWR0108" H 7550 5050 50  0001 C CNN
F 1 "GND" H 7555 5127 50  0000 C CNN
F 2 "" H 7550 5300 50  0001 C CNN
F 3 "" H 7550 5300 50  0001 C CNN
	1    7550 5300
	1    0    0    -1  
$EndComp
Wire Wire Line
	7550 5000 7850 5000
Wire Wire Line
	7850 5000 8050 5000
Connection ~ 7850 5000
$Comp
L Device:CP1 C3
U 1 1 618EE199
P 8850 5150
F 0 "C3" H 8965 5196 50  0000 L CNN
F 1 "CP1" H 8965 5105 50  0000 L CNN
F 2 "Capacitor_THT:CP_Radial_D5.0mm_P2.00mm" H 8850 5150 50  0001 C CNN
F 3 "~" H 8850 5150 50  0001 C CNN
	1    8850 5150
	1    0    0    -1  
$EndComp
Wire Wire Line
	8850 5000 8650 5000
Connection ~ 8850 5000
$Comp
L power:GND #PWR0109
U 1 1 618EE1AB
P 8850 5300
F 0 "#PWR0109" H 8850 5050 50  0001 C CNN
F 1 "GND" H 8855 5127 50  0000 C CNN
F 2 "" H 8850 5300 50  0001 C CNN
F 3 "" H 8850 5300 50  0001 C CNN
	1    8850 5300
	1    0    0    -1  
$EndComp
$Comp
L power:GND #PWR0110
U 1 1 618EE1A5
P 9200 5300
F 0 "#PWR0110" H 9200 5050 50  0001 C CNN
F 1 "GND" H 9205 5127 50  0000 C CNN
F 2 "" H 9200 5300 50  0001 C CNN
F 3 "" H 9200 5300 50  0001 C CNN
	1    9200 5300
	1    0    0    -1  
$EndComp
$Comp
L Device:C C4
U 1 1 618EE19F
P 9200 5150
F 0 "C4" H 9315 5196 50  0000 L CNN
F 1 "C" H 9315 5105 50  0000 L CNN
F 2 "Capacitor_THT:CP_Radial_D4.0mm_P2.00mm" H 9238 5000 50  0001 C CNN
F 3 "~" H 9200 5150 50  0001 C CNN
	1    9200 5150
	1    0    0    -1  
$EndComp
Wire Wire Line
	8850 5000 9200 5000
$Comp
L Connector:Screw_Terminal_01x02 J6
U 1 1 61914A8E
P 7100 5100
F 0 "J6" H 7018 4775 50  0000 C CNN
F 1 "Terminal_Alimentacion" H 7018 4866 50  0000 C CNN
F 2 "TerminalBlock:TerminalBlock_bornier-2_P5.08mm" H 7100 5100 50  0001 C CNN
F 3 "~" H 7100 5100 50  0001 C CNN
	1    7100 5100
	-1   0    0    1   
$EndComp
Wire Wire Line
	7300 5000 7550 5000
Connection ~ 7550 5000
$Comp
L power:GND #PWR0111
U 1 1 6191B1A3
P 7300 5100
F 0 "#PWR0111" H 7300 4850 50  0001 C CNN
F 1 "GND" H 7305 4927 50  0000 C CNN
F 2 "" H 7300 5100 50  0001 C CNN
F 3 "" H 7300 5100 50  0001 C CNN
	1    7300 5100
	1    0    0    -1  
$EndComp
Wire Wire Line
	5000 1650 5050 1650
Wire Wire Line
	3350 1650 3400 1650
$Comp
L power:VCC #PWR0118
U 1 1 6193515F
P 3400 1650
F 0 "#PWR0118" H 3400 1500 50  0001 C CNN
F 1 "VCC" H 3415 1823 50  0000 C CNN
F 2 "" H 3400 1650 50  0001 C CNN
F 3 "" H 3400 1650 50  0001 C CNN
	1    3400 1650
	-1   0    0    1   
$EndComp
Connection ~ 3400 1650
Wire Wire Line
	3400 1650 3450 1650
$Comp
L power:VCC #PWR0119
U 1 1 61935692
P 5050 1650
F 0 "#PWR0119" H 5050 1500 50  0001 C CNN
F 1 "VCC" H 5065 1823 50  0000 C CNN
F 2 "" H 5050 1650 50  0001 C CNN
F 3 "" H 5050 1650 50  0001 C CNN
	1    5050 1650
	-1   0    0    1   
$EndComp
Connection ~ 5050 1650
Wire Wire Line
	5050 1650 5100 1650
$Comp
L power:VCC #PWR0120
U 1 1 6193E9BC
P 6100 4000
F 0 "#PWR0120" H 6100 3850 50  0001 C CNN
F 1 "VCC" H 6115 4173 50  0000 C CNN
F 2 "" H 6100 4000 50  0001 C CNN
F 3 "" H 6100 4000 50  0001 C CNN
	1    6100 4000
	0    -1   -1   0   
$EndComp
Connection ~ 6100 3900
Wire Wire Line
	6100 3900 5900 3900
$Comp
L Connector_Generic:Conn_01x13 J7
U 1 1 618A851C
P 7400 3200
F 0 "J7" H 7480 3242 50  0000 L CNN
F 1 "Conn_01x13" H 7480 3151 50  0000 L CNN
F 2 "Connector_PinHeader_2.54mm:PinHeader_1x13_P2.54mm_Vertical" H 7400 3200 50  0001 C CNN
F 3 "~" H 7400 3200 50  0001 C CNN
	1    7400 3200
	1    0    0    -1  
$EndComp
$Comp
L Connector_Generic:Conn_01x13 J4
U 1 1 618A99A4
P 5900 3200
F 0 "J4" H 5818 2375 50  0000 C CNN
F 1 "Conn_01x13" H 5818 2466 50  0000 C CNN
F 2 "Connector_PinHeader_2.54mm:PinHeader_1x13_P2.54mm_Vertical" H 5900 3200 50  0001 C CNN
F 3 "~" H 5900 3200 50  0001 C CNN
	1    5900 3200
	-1   0    0    1   
$EndComp
Wire Wire Line
	6300 5050 6300 5500
Wire Wire Line
	6100 5050 6100 5500
Text GLabel 6300 5300 2    50   Input ~ 0
Regulador
Text GLabel 5550 5000 2    50   Input ~ 0
Step_UP
Text GLabel 6100 5300 0    50   Input ~ 0
Step_UP
Text GLabel 9200 5000 2    50   Input ~ 0
Regulador
$Comp
L Tank-rescue:Switch-Switch_Interruptor U3
U 1 1 6189D270
P 6050 5050
F 0 "U3" H 5672 4862 50  0000 R CNN
F 1 "Switch-Switch_Interruptor" H 5672 4953 50  0000 R CNN
F 2 "Connector_PinHeader_2.54mm:PinHeader_1x03_P2.54mm_Vertical" H 6350 5200 50  0001 C CNN
F 3 "" H 6350 5200 50  0001 C CNN
	1    6050 5050
	-1   0    0    1   
$EndComp
$Comp
L power:VCC #PWR0104
U 1 1 6189EC4A
P 6200 5050
F 0 "#PWR0104" H 6200 4900 50  0001 C CNN
F 1 "VCC" H 6215 5223 50  0000 C CNN
F 2 "" H 6200 5050 50  0001 C CNN
F 3 "" H 6200 5050 50  0001 C CNN
	1    6200 5050
	-1   0    0    1   
$EndComp
$EndSCHEMATC
